keys,en,fr
appTitle,Sunstone,Sunstone
menu,Menu,Menu
orders,Orders,Commandes
error,Something went wrong,Erreur Survenue
loading,Loading,Chargement
taxCharge,Taxes & charges,Taxes et charges
sprkling,sparkiling water,Eau petillante
orderKind,What kind of order is this?,Quel genre de Commande est-ce?
bil,Bill,Facture
ordPlace,Place order,Passer la Commande
instruction,Do you have instructions?,Avez-vous des Instructions?
restaurantOrder,Restaurant Order,Commande de Restaurant
total,Total,Total
tableNumber,Table N.,N. table
address,Address,Adresse
orderDate,Date,Date
item,Item,Article
items,Items,Articles
fbu,FBU,FBU
roomNumber,Room,Chambre
pendingOrder,Order Pending,Commande En Attente
confirmedOrder,Order Confirmed,Commande Confirmée
orderPreparation,Order Being Prepared,Commande En Préparation
orderServed,Order Served,Commande Servie
and,and,et
moreItems,More Items,Articles De Plus
order,Order,Commande
orderInformation,Informations,Informations
billDetails,Bill,Facture
ntable,Table,Table
nRoom,Room,Chambre
livrdomicile,Home delivery,Livraison à Domicile
gtotal,Grand Total,Grand total
fone,Phone number,Numéro de Téléphone
requit,Required,Requis
cancelOrder,Cancel Order,Annuler la Commande
orderDeleted,Order Deleted,Commande Annulé
pending,Pending,En Attente
confirmed,Confirmed,Confirmé
preparing,Preparing,En Préparation
served,Served,Servie
number,Number,Nombre
updateStatus,Mettre à Jour Le Statut de la Commande,Update The Status Of The Order
vOrder,View My Order,Voir Ma Commande
addWhat,What Do You Want to Add?,Que Voulez-vous Ajouter?
category,Category,Catégorie
addItem,Add,Ajouter
categoryName,Name of Categoy,Nom de la Categorie
itemPrice,Price of Item,Prix de l'article
itemName,Name of Item,Nom de l'article
noInternet,No Internet Connection,Pas de Connexion Internet
login,Log In,Se Connecter
logout,Log Out,Se Deconnecter
accountDisabled,Your account is disabled. Contact the nearest personnel to request activation,Ton compte est désactivé. Contactez le personnel le plus proche pour demander l'activation
grandTotal,Grand Total,Total
orderStatus,Order Status,Statut De La Commande
loadData,Load Data,Charger Les Données
orderPlaceholder,Your Orders Will Appear Here,Vos Commandes Apparaîtront Ici
operationFailed,Operation Failed. Try Again Later,L'opération a échoué. Reéssayez Plus Tard
operationSucceeded,Operation Succeeded,L'Opération a réussie
pickImages,Pick An Image,Choisir Une Image
cantSelect,You can't select any more,Vous ne pouvez plus sélectionner
photoChanged,Profile Picture Changed. It may take some time to reflect in the app,Image de profil changée. La réflexion dans l'application peut prendre un certain temps
yourphonenumber,Phone Number,Numéro de Téléphone
requiredInput,*Required,*Requis
signin,Sign In,S'identifier
smscode,SMS Code,Code SMS
confirm,Confirm,Confirmer
yourname,Enter Your Name,Entrez Votre Nom
signUp,Sign UP,Inscrivez-Vous
createprofile,Create Profile,créer un profil
createaccount,Create Account,créer un compte
instr,Instructions,Instructions
selectLocation,Select A Location,Sélectionnez un emplacement
save,Save,Enregistrer
cold,Cold,Froid
lukeWarm,LukeWarm,Tiède
howLiked,How do you like it,Comment le voulez vous
called,requires your attention,nécessite votre attention
accept,Go to,Aller à
oopsSomethingwentwrong,Oops something went wrong!,oups quelque chose s'est mal passée!
noDevices,No device selected,Aucun appareil sélectionné
pleaseEnablebluetooth,Please enable bluetooth to print,Veuillez activer bluetooth pour imprimer
callThewaiter,Call a waiter,Appeler un serveur
messageSent,Message sent,Message envoyé
delete,Delete,Supprimer
saveAddress,Save Address,Enregistrer L'adresse
deliverOrder,Deliver This Order,Livrer cette commande
enterLocation,Select your delivery location,Sélectionnez votre lieu de livraison
addr,Complete Address,Adresse Complète
totEncaisse,Total cashed on,Le Total encaissé le
date,Date,Date
search,Search,Rechercher
name,Name,Nom
phone,Phone,Tél
last,Last seen at,Vu à
active,Activate,Activer
dailyTotal, Daily Total, Total Journalier
quantity,Quantity,Quantité
used,used,utilisé
unit,Unit,Unité
itemDescription,Enter Item Description,Entrer Déscription
itemEditing,Edit Item Details,Modifier Détails
printingDisabled,Printing Disabled,Impression désactivée
cancelOnly,Cancel,Annuler
linkToMenu,Link to Menu,Lier au Menu
selectUnit,Select Unit,Choisir l'Unité
added,Added,Ajouté
linkDescription,Choose any meal that requires this item,Choisissez chaque repas qui nécessite cet article
enterQuantity,Enter Quantity,Saisissez la Quantité
edit,Edit,Modifier
adjust,Adjust,Ajuster
noResult,No Result,Pas De Résultat
weeklyinventory,Last 7 Days Total Overview,Aperçu du total des 7 derniers jours
totalOrders,Orders Of The Day,Commandes Du Jour
totalCount,Total Count,Compte Total
deactivateUser,User Details,Détails de l'utilisateur
desactive,Desactivate,Désactiver
evaluationSem,Evaluation of the week,Evaluation de la semaine
stockUsed,Today Most Used Stock Items,Articles en stock les plus utilisés aujourd'hui
inen,In,En
updateStock,Update Stock,Mettre à Jour le Stock
refillStock,Refill Stock,Remplir le Stock
refillTitle,Enter the amount to add to the stock,Saisissez le montant à ajouter au stock
updateTitle,Enter the amount to remove from the stock,Saisir le montant à retirer du stock
editCondimentQuantity,Enter the amount to substract from the stock when the element is used to prepare the dish.,Saisir la quantité à soustraire du stock lorsque l'élément est utilisé pour préparer le plat.
over,over,sur
inStock, in Stock, en Stock
editMenuItem,Edit item's ttributes,Modifier les attributs de l'élément
refilledAt,Refilled on,Rempli le
remaining,Remaining,Restant
role,Role,Rôle
change,Change,Changer
changeRole,Change Role,Changer de rôle
updateRole,Update Role,Mettre à jour le rôle
device,Device : ,Appareil :
refresh,Refresh,Rafraîchir
disconnect,Disconnect,Déconnecter
connect,Connect,Connecter
print,Print,Imprimer
none,None,Rien
receipt,Receipt,Reçu
agentName,Agent Name,Nom de l'agent
thankYou,Thank You ...!,Merci ...!
orderType,Order Type,Type de commande
readAndAgree,I have read and agree to ,J'ai lu et j'accepte
terms,the terms of service,les conditions de service
acceptConditions,You haven't accepted the terms of service,Vous n'avez pas accepté les conditions de service
roomOrder,Room Order,Commande de chambre
loginWithEmail,Login With Email,Se Connecter avec Email
emailAdress,Email Adress,Adresse Email
password,Password,Mot de Passe
confirmPassword,Confirm Password,Confirmer Mot de Passe
invalid,Invalid,Non valide
passwordUnmatch,Passwords do not match,les mots de passe ne concordent pas
passwordShort,Password too short,Mot de Passe trop court
invalidEmail,Invalid Email Adress,Adresse E-mail Incorrecte
firstLoginWithEmail,"No Account Yet?, Register here","Pas encore de compte?, Inscrivez-vous ici"
register,Register,S'inscrire
noUserFound,No User Found,Aucun Utilisateur trouvé
dashboard,Dashboard, Tableau de Bord
stock,Stock,Stock
chat,Chat,Chat
users,Users,Utilisateurs
cancel,Cancel,Annuler
timeout,The operation took too long. Check your network and try again,L'opération a pris trop de temps. Vérifiez votre réseau et réessayez
chatPlaceHolder,Your Chats Will Appear Here,Vos discussions apparaîtront ici
typeSomething,Type Something...,Tapez quelque chose...
updateMessage,Update your app to see this message,Mettez à jour votre application pour voir ce message
noRecents,No Recents,Aucun récent
file,File,Fichier
video,Video,Vidéo
image,Image,Image
uploading,Uploading...,Téléversement...
fileBig,File too big. max size is 5MB,Fichier trop gros. la taille maximale est de 5 Mo
welcomeMessage,Welcome to Sunstone. How can we help you?,Bienvenue à Sunstone. Comment pouvons-nous vous aider?
unavailable,Unavailable,Non disponible
wrongPasswordEmail,Wrong Email Or Password,E-mail ou mot de passe incorrect
printReceipt,Print Receipt,Imprimer le reçu
printLabel,Print Label,Imprimer l'étiquette
printVersion,Printer version,Version imprimante
serialNumber,Serial number,Numéro de série
paperSize,Paper size,Taille de papier
printBinded,Print binded,Imprimante reliée
assignRoom,Assign Room,Attribuer une Chambre
assign,Assign,Attribuer
noRoomAssigned,No Room assigned,Pas de Chambre Attribuée
